{"name":"test003","id":"in.reqres.reqresinfo.ReqresCURDTestWithSteps:test003","testCaseName":"in.reqres.reqresinfo.ReqresCURDTestWithSteps","testSteps":[{"number":1,"description":"Updating User information with usersID:  0, name: morpheus39281_updated, job: leader15382, email: zarmartri@gmail.com23372 ","duration":256,"startTime":"2022-06-06T23:32:44.365+01:00[Europe/London]","result":"SUCCESS","precondition":false,"children":[{"number":2,"description":"PUT https://reqres.in/api/users/0\r\r","duration":0,"startTime":"2022-06-06T23:32:44.620+01:00[Europe/London]","result":"SUCCESS","restQuery":{"method":"PUT","path":"https://reqres.in/api/users/0\r\r","content":"{\n    \"name\": \"morpheus39281_updated\",\n    \"job\": \"leader15382\",\n    \"email\": \"zarmartri@gmail.com23372\"\n}\r","contentType":"application/json","requestHeaders":"Accept\u003d*/*\r\n\t\t\t\tContent-Type\u003dapplication/json; charset\u003dUTF-8\r\r","requestCookies":"\r\r","responseHeaders":"Date: Mon, 06 Jun 2022 22:32:44 GMT\nContent-Type: application/json; charset\u003dutf-8\nTransfer-Encoding: chunked\nConnection: keep-alive\nX-Powered-By: Express\nAccess-Control-Allow-Origin: *\nEtag: W/\"7e-y3drCotBDLbw7cUj6vEuhAHr5Js\"\nVia: 1.1 vegur\nCF-Cache-Status: DYNAMIC\nExpect-CT: max-age\u003d604800, report-uri\u003d\"https://report-uri.cloudflare.com/cdn-cgi/beacon/expect-ct\"\nReport-To: {\"endpoints\":[{\"url\":\"https:\\/\\/a.nel.cloudflare.com\\/report\\/v3?s\u003dDpRt%2BmtGlv%2FA8oDyQPH1pZX7yD2pMefo5qrCrzbIWXbcIe2EFcs1QWClkavGK9FE9hoJ%2B08%2BFlaTr39JlvgP4XfGyjIoHCt0v3wMnYdMSMzgFIrCtLgwum0MuhI%3D\"}],\"group\":\"cf-nel\",\"max_age\":604800}\nNEL: {\"success_fraction\":0,\"report_to\":\"cf-nel\",\"max_age\":604800}\nVary: Accept-Encoding\nServer: cloudflare\nCF-RAY: 71749b0e8e10774d-LHR\nContent-Encoding: gzip\nalt-svc: h3\u003d\":443\"; ma\u003d86400, h3-29\u003d\":443\"; ma\u003d86400\r","responseCookies":"\r","responseBody":"{\n    \"name\": \"morpheus39281_updated\",\n    \"job\": \"leader15382\",\n    \"email\": \"zarmartri@gmail.com23372\",\n    \"updatedAt\": \"2022-06-06T22:32:44.606Z\"\n}","statusCode":200},"precondition":false}]},{"number":3,"description":"Getting the user information with name: 0","duration":193,"startTime":"2022-06-06T23:32:44.623+01:00[Europe/London]","result":"SUCCESS","precondition":false,"children":[{"number":4,"description":"GET https://reqres.in/api/0\r\r","duration":0,"startTime":"2022-06-06T23:32:44.809+01:00[Europe/London]","result":"SUCCESS","restQuery":{"method":"GET","path":"https://reqres.in/api/0\r\r","content":"\r","contentType":"null","requestHeaders":"Accept\u003d*/*\r\r","requestCookies":"\r\r","responseHeaders":"Date: Mon, 06 Jun 2022 22:32:44 GMT\nContent-Type: application/json; charset\u003dutf-8\nTransfer-Encoding: chunked\nConnection: keep-alive\nX-Powered-By: Express\nAccess-Control-Allow-Origin: *\nEtag: W/\"2c1-N6Rqerxquq2kgQhL51EiSg4x0R8\"\nVia: 1.1 vegur\nCache-Control: max-age\u003d14400\nCF-Cache-Status: MISS\nExpect-CT: max-age\u003d604800, report-uri\u003d\"https://report-uri.cloudflare.com/cdn-cgi/beacon/expect-ct\"\nReport-To: {\"endpoints\":[{\"url\":\"https:\\/\\/a.nel.cloudflare.com\\/report\\/v3?s\u003diwxXnFoEmAUAcVYhtP9YEkVsF22mnrQGcUrmFBQjFRR6lvXD9La1ZOyfqZc13qKE3x4bNnUs8JLQAhn4kDbQ0XEBPj5%2BSkjUlxvWAXLFQM03cxKvbRgWQBGBe%2BA%3D\"}],\"group\":\"cf-nel\",\"max_age\":604800}\nNEL: {\"success_fraction\":0,\"report_to\":\"cf-nel\",\"max_age\":604800}\nVary: Accept-Encoding\nServer: cloudflare\nCF-RAY: 71749b0fc93676af-LHR\nContent-Encoding: gzip\nalt-svc: h3\u003d\":443\"; ma\u003d86400, h3-29\u003d\":443\"; ma\u003d86400\r","responseCookies":"\r","responseBody":"{\n    \"page\": 1,\n    \"per_page\": 6,\n    \"total\": 12,\n    \"total_pages\": 2,\n    \"data\": [\n        {\n            \"id\": 1,\n            \"name\": \"cerulean\",\n            \"year\": 2000,\n            \"color\": \"#98B2D1\",\n            \"pantone_value\": \"15-4020\"\n        },\n        {\n            \"id\": 2,\n            \"name\": \"fuchsia rose\",\n            \"year\": 2001,\n            \"color\": \"#C74375\",\n            \"pantone_value\": \"17-2031\"\n        },\n        {\n            \"id\": 3,\n            \"name\": \"true red\",\n            \"year\": 2002,\n            \"color\": \"#BF1932\",\n            \"pantone_value\": \"19-1664\"\n        },\n        {\n            \"id\": 4,\n            \"name\": \"aqua sky\",\n            \"year\": 2003,\n            \"color\": \"#7BC4C4\",\n            \"pantone_value\": \"14-4811\"\n        },\n        {\n            \"id\": 5,\n            \"name\": \"tigerlily\",\n            \"year\": 2004,\n            \"color\": \"#E2583E\",\n            \"pantone_value\": \"17-1456\"\n        },\n        {\n            \"id\": 6,\n            \"name\": \"blue turquoise\",\n            \"year\": 2005,\n            \"color\": \"#53B0AE\",\n            \"pantone_value\": \"15-5217\"\n        }\n    ],\n    \"support\": {\n        \"url\": \"https://reqres.in/#support-heading\",\n        \"text\": \"To keep ReqRes free, contributions towards server costs are appreciated!\"\n    }\n}","statusCode":200},"precondition":false}]}],"userStory":{"id":"in.reqres.reqresinfo.ReqresCURDTestWithSteps","storyName":"Reqres CURD test with steps","storyClassName":"in.reqres.reqresinfo.ReqresCURDTestWithSteps","path":"in.reqres.reqresinfo","type":"story"},"featureTag":{"name":"Reqresinfo/Reqres CURD test with steps","type":"story"},"title":"Update the user information and verify the updated information","tags":[{"name":"Reqresinfo/Reqres CURD test with steps","type":"story"}],"startTime":"2022-06-06T23:32:44.361+01:00[Europe/London]","duration":463,"testFailureCause":{"errorType":"java.lang.AssertionError","message":"\nExpected: map containing [ANYTHING-\u003e\"morpheus39281_updated\"]\n     but: map was [\u003cper_page\u003d6\u003e, \u003ctotal\u003d12\u003e, \u003cdata\u003d[{color\u003d#98B2D1, year\u003d2000, name\u003dcerulean, id\u003d1, pantone_value\u003d15-4020}, {color\u003d#C74375, year\u003d2001, name\u003dfuchsia rose, id\u003d2, pantone_value\u003d17-2031}, {color\u003d#BF1932, year\u003d2002, name\u003dtrue red, id\u003d3, pantone_value\u003d19-1664}, {color\u003d#7BC4C4, year\u003d2003, name\u003daqua sky, id\u003d4, pantone_value\u003d14-4811}, {color\u003d#E2583E, year\u003d2004, name\u003dtigerlily, id\u003d5, pantone_value\u003d17-1456}, {color\u003d#53B0AE, year\u003d2005, name\u003dblue turquoise, id\u003d6, pantone_value\u003d15-5217}]\u003e, \u003cpage\u003d1\u003e, \u003ctotal_pages\u003d2\u003e, \u003csupport\u003d{text\u003dTo keep ReqRes free, contributions towards server costs are appreciated!, url\u003dhttps://reqres.in/#support-heading}\u003e]","stackTrace":[{"declaringClass":"in.reqres.reqresinfo.ReqresCURDTestWithSteps","methodName":"test003","fileName":"ReqresCURDTestWithSteps.java","lineNumber":65}]},"testFailureClassname":"java.lang.AssertionError","testFailureMessage":"\nExpected: map containing [ANYTHING-\u003e\"morpheus39281_updated\"]\n     but: map was [\u003cper_page\u003d6\u003e, \u003ctotal\u003d12\u003e, \u003cdata\u003d[{color\u003d#98B2D1, year\u003d2000, name\u003dcerulean, id\u003d1, pantone_value\u003d15-4020}, {color\u003d#C74375, year\u003d2001, name\u003dfuchsia rose, id\u003d2, pantone_value\u003d17-2031}, {color\u003d#BF1932, year\u003d2002, name\u003dtrue red, id\u003d3, pantone_value\u003d19-1664}, {color\u003d#7BC4C4, year\u003d2003, name\u003daqua sky, id\u003d4, pantone_value\u003d14-4811}, {color\u003d#E2583E, year\u003d2004, name\u003dtigerlily, id\u003d5, pantone_value\u003d17-1456}, {color\u003d#53B0AE, year\u003d2005, name\u003dblue turquoise, id\u003d6, pantone_value\u003d15-5217}]\u003e, \u003cpage\u003d1\u003e, \u003ctotal_pages\u003d2\u003e, \u003csupport\u003d{text\u003dTo keep ReqRes free, contributions towards server costs are appreciated!, url\u003dhttps://reqres.in/#support-heading}\u003e]","testFailureSummary":"FAILURE;java.lang.AssertionError;\nExpected: map containing [ANYTHING-\u003e\"morpheus39281_updated\"]\n     but: map was [\u003cper_page\u003d6\u003e, \u003ctotal\u003d12\u003e, \u003cdata\u003d[{color\u003d#98B2D1, year\u003d2000, name\u003dcerulean, id\u003d1, pantone_value\u003d15-4020}, {color\u003d#C74375, year\u003d2001, name\u003dfuchsia rose, id\u003d2, pantone_value\u003d17-2031}, {color\u003d#BF1932, year\u003d2002, name\u003dtrue red, id\u003d3, pantone_value\u003d19-1664}, {color\u003d#7BC4C4, year\u003d2003, name\u003daqua sky, id\u003d4, pantone_value\u003d14-4811}, {color\u003d#E2583E, year\u003d2004, name\u003dtigerlily, id\u003d5, pantone_value\u003d17-1456}, {color\u003d#53B0AE, year\u003d2005, name\u003dblue turquoise, id\u003d6, pantone_value\u003d15-5217}]\u003e, \u003cpage\u003d1\u003e, \u003ctotal_pages\u003d2\u003e, \u003csupport\u003d{text\u003dTo keep ReqRes free, contributions towards server costs are appreciated!, url\u003dhttps://reqres.in/#support-heading}\u003e];ReqresCURDTestWithSteps.java","projectKey":"","annotatedResult":"FAILURE","manual":false,"testSource":"JUnit","result":"FAILURE"}